{
  "Comment.nvim": { "branch": "master", "commit": "e30b7f2008e52442154b66f7c519bfd2f1e32acb" },
  "LuaSnip": { "branch": "master", "commit": "659c4479529a05cc9b05ef762639a09d366cc690" },
  "cmp-nvim-lsp": { "branch": "main", "commit": "39e2eda76828d88b773cc27a3f61d2ad782c922d" },
  "cmp-path": { "branch": "main", "commit": "91ff86cd9c29299a64f968ebb45846c485725f23" },
  "cmp_luasnip": { "branch": "master", "commit": "98d9cb5c2c38532bd9bdb481067b20fea8f32e90" },
  "conform.nvim": { "branch": "master", "commit": "023f795dbcf32d4351b6a9ed2e613d471b5bb812" },
  "easytables.nvim": { "branch": "master", "commit": "ae57fdaad25a5f9ac2773ebdb8782c7bbc7d8932" },
  "fidget.nvim": { "branch": "main", "commit": "e2a175c2abe2d4f65357da1c98c59a5cfb2b543f" },
  "gitsigns.nvim": { "branch": "main", "commit": "ac5aba6dce8c06ea22bea2c9016f51a2dbf90dc7" },
  "harpoon": { "branch": "harpoon2", "commit": "a84ab829eaf3678b586609888ef52f7779102263" },
  "lazy.nvim": { "branch": "main", "commit": "7967abe55752aa90532e6bb4bd4663fe27a264cb" },
  "mason-lspconfig.nvim": { "branch": "main", "commit": "4d0e5b49363cac187326998b96aa6a2884e0e89b" },
  "mason-tool-installer.nvim": { "branch": "main", "commit": "c5e07b8ff54187716334d585db34282e46fa2932" },
  "mason.nvim": { "branch": "main", "commit": "e2f7f9044ec30067bc11800a9e266664b88cda22" },
  "mini.nvim": { "branch": "main", "commit": "7b4d5d48b6b5a75009d63f8f3e4ef4819b7e8139" },
  "neodev.nvim": { "branch": "main", "commit": "46aa467dca16cf3dfe27098042402066d2ae242d" },
  "nvim-cmp": { "branch": "main", "commit": "f17d9b4394027ff4442b298398dfcaab97e40c4f" },
  "nvim-lspconfig": { "branch": "master", "commit": "d2d153a179ed59aa7134d7ebdf4d7dcb156efa22" },
  "nvim-treesitter": { "branch": "master", "commit": "6389ceb1758b8f62a15194e3b790e33268304cb8" },
  "plenary.nvim": { "branch": "master", "commit": "2d9b06177a975543726ce5c73fca176cedbffe9d" },
  "telescope-fzf-native.nvim": { "branch": "main", "commit": "cf48d4dfce44e0b9a2e19a008d6ec6ea6f01a83b" },
  "telescope-ui-select.nvim": { "branch": "master", "commit": "6e51d7da30bd139a6950adf2a47fda6df9fa06d2" },
  "telescope.nvim": { "branch": "0.1.x", "commit": "a0bbec21143c7bc5f8bb02e0005fa0b982edc026" },
  "todo-comments.nvim": { "branch": "main", "commit": "ae0a2afb47cf7395dc400e5dc4e05274bf4fb9e0" },
  "tokyonight.nvim": { "branch": "main", "commit": "9758827c3b380ba89da4a2212b6255d01afbcf08" },
  "vim-fugitive": { "branch": "master", "commit": "d4877e54cef67f5af4f950935b1ade19ed6b7370" },
  "vim-pandoc-syntax": { "branch": "master", "commit": "16939cda184ff555938cc895cc62477c172997f9" },
  "vim-sleuth": { "branch": "master", "commit": "be69bff86754b1aa5adcbb527d7fcd1635a84080" },
  "which-key.nvim": { "branch": "main", "commit": "68e37e12913a66b60073906f5d3f14dee0de19f2" }
}
